{
  "available_stores": ["DE", "GB"],
  "smarty_templates_dir": "src-presentation/view-scripts/",
  "smarty_default_theme": "default",
  "smarty_current_theme": "default",
  "backend_client": {
    "auth": {
      "username": "xxx",
      "password": "xxx"
    },
    "host": "xxx.local"
  },
  "redis": {
    "webfe_master" : {
      "host": "${CONSUL_REDIS_MASTER_HOST}",
      "port": "${CONSUL_REDIS_MASTER_PORT}",
      "index_db": 1
    }
  },
  "route_cache_dir": "cache/routes/"
}
